tb/test_out/9_waw_hazard/waveform.vcd
$version Generated by VerilatedVcd $end
$timescale 1ps $end
 $scope module TOP $end
  $var wire 1 -! clk $end
  $var wire 1 .! rst $end
  $var wire 32 /! a0 [31:0] $end
  $scope module top $end
   $var wire 1 -! clk $end
   $var wire 1 .! rst $end
   $var wire 32 /! a0 [31:0] $end
   $var wire 2 # PCSrcE [1:0] $end
   $var wire 32 0! InstrF [31:0] $end
   $var wire 32 $ InstrD [31:0] $end
   $var wire 32 % PCTargetE [31:0] $end
   $var wire 32 & ALUResultE [31:0] $end
   $var wire 32 1! PCF [31:0] $end
   $var wire 32 ' PCD [31:0] $end
   $var wire 32 2! PCPlus4F [31:0] $end
   $var wire 32 ( PCPlus4D [31:0] $end
   $var wire 32 ) ResultW [31:0] $end
   $var wire 5 * RdW [4:0] $end
   $var wire 1 + RegWriteW $end
   $var wire 32 3! RD1D [31:0] $end
   $var wire 32 4! RD2D [31:0] $end
   $var wire 32 , ImmExtD [31:0] $end
   $var wire 5 - Rs1D [4:0] $end
   $var wire 5 . Rs2D [4:0] $end
   $var wire 5 / RdD [4:0] $end
   $var wire 1 0 RegWriteD $end
   $var wire 2 1 ResultSrcD [1:0] $end
   $var wire 1 2 MemWriteD $end
   $var wire 2 3 JumpD [1:0] $end
   $var wire 1 4 BranchD $end
   $var wire 3 5 BranchTypeD [2:0] $end
   $var wire 4 6 ALUControlD [3:0] $end
   $var wire 1 7 ALUSrcBD $end
   $var wire 1 8 ALUSrcAD $end
   $var wire 3 9 AddressingControlD [2:0] $end
   $var wire 1 : RegWriteE $end
   $var wire 2 ; ResultSrcE [1:0] $end
   $var wire 1 < MemWriteE $end
   $var wire 2 = JumpE [1:0] $end
   $var wire 1 > BranchE $end
   $var wire 4 ? ALUControlE [3:0] $end
   $var wire 1 @ ALUSrcAE $end
   $var wire 1 A ALUSrcBE $end
   $var wire 32 B SrcAE [31:0] $end
   $var wire 3 C AddressingControlE [2:0] $end
   $var wire 3 D BranchTypeE [2:0] $end
   $var wire 32 E RD1E [31:0] $end
   $var wire 32 F RD2E [31:0] $end
   $var wire 32 G PCE [31:0] $end
   $var wire 5 H Rs1E [4:0] $end
   $var wire 5 I Rs2E [4:0] $end
   $var wire 5 J RdE [4:0] $end
   $var wire 32 K ImmExtE [31:0] $end
   $var wire 1 L RegWriteM $end
   $var wire 2 M ResultSrcM [1:0] $end
   $var wire 1 N MemWriteM $end
   $var wire 3 O AddressingControlM [2:0] $end
   $var wire 32 P ALUResultM [31:0] $end
   $var wire 32 Q WriteDataM [31:0] $end
   $var wire 5 R RdM [4:0] $end
   $var wire 32 S PCPlus4M [31:0] $end
   $var wire 32 T RDM [31:0] $end
   $var wire 2 U ResultSrcW [1:0] $end
   $var wire 32 V ALUResultW [31:0] $end
   $var wire 32 W ReadDataW [31:0] $end
   $var wire 32 X PCPlus4W [31:0] $end
   $var wire 32 Y WriteDataE [31:0] $end
   $var wire 32 Z PCPlus4E [31:0] $end
   $var wire 32 /! a0D [31:0] $end
   $var wire 1 [ FEN $end
   $var wire 1 [ DEN $end
   $var wire 1 \ RSTE $end
   $var wire 1 ] RSTD $end
   $scope module decode1 $end
    $var wire 1 -! clk $end
    $var wire 32 $ InstrD [31:0] $end
    $var wire 32 ) WD3 [31:0] $end
    $var wire 5 * A3 [4:0] $end
    $var wire 1 + WE3 $end
    $var wire 32 3! RD1 [31:0] $end
    $var wire 32 4! RD2 [31:0] $end
    $var wire 32 , ImmExtD [31:0] $end
    $var wire 5 - Rs1D [19:15] $end
    $var wire 5 . Rs2D [24:20] $end
    $var wire 5 / RdD [11:7] $end
    $var wire 1 0 RegWriteD $end
    $var wire 2 1 ResultSrcD [1:0] $end
    $var wire 1 2 MemWriteD $end
    $var wire 2 3 JumpD [1:0] $end
    $var wire 1 4 BranchD $end
    $var wire 3 5 BranchTypeD [2:0] $end
    $var wire 4 6 ALUControlD [3:0] $end
    $var wire 1 7 ALUSrcBD $end
    $var wire 1 8 ALUSrcAD $end
    $var wire 3 9 AddressingControlD [2:0] $end
    $var wire 32 /! a0D [31:0] $end
    $var wire 7 ^ op [6:0] $end
    $var wire 3 _ funct3 [14:12] $end
    $var wire 7 ` funct7 [6:0] $end
    $var wire 5 - A1 [19:15] $end
    $var wire 5 . A2 [24:20] $end
    $var wire 3 a ImmSrcD [2:0] $end
    $var wire 25 b Imm [31:7] $end
    $scope module control1 $end
     $var wire 7 ^ opcode [6:0] $end
     $var wire 3 _ funct3 [2:0] $end
     $var wire 7 ` funct7 [6:0] $end
     $var wire 1 0 RegWrite $end
     $var wire 4 6 ALUControl [3:0] $end
     $var wire 1 8 ALUSrcA $end
     $var wire 1 7 ALUSrcB $end
     $var wire 1 2 MemWrite $end
     $var wire 2 1 ResultSrc [1:0] $end
     $var wire 1 4 Branch $end
     $var wire 3 5 BranchType [2:0] $end
     $var wire 2 3 Jump [1:0] $end
     $var wire 3 a ImmSrc [2:0] $end
     $var wire 3 9 AddressingControl [2:0] $end
    $upscope $end
    $scope module reg_file1 $end
     $var wire 32 6! ADDRESS_WIDTH [31:0] $end
     $var wire 32 7! DATA_WIDTH [31:0] $end
     $var wire 1 -! clk $end
     $var wire 5 * AD3 [4:0] $end
     $var wire 5 - AD1 [4:0] $end
     $var wire 5 . AD2 [4:0] $end
     $var wire 32 ) WD3 [31:0] $end
     $var wire 1 + WE3 $end
     $var wire 32 3! RD1 [31:0] $end
     $var wire 32 4! RD2 [31:0] $end
     $var wire 32 /! a0 [31:0] $end
     $var wire 32 k ram_array[0] [31:0] $end
     $var wire 32 l ram_array[1] [31:0] $end
     $var wire 32 m ram_array[2] [31:0] $end
     $var wire 32 n ram_array[3] [31:0] $end
     $var wire 32 o ram_array[4] [31:0] $end
     $var wire 32 p ram_array[5] [31:0] $end
     $var wire 32 q ram_array[6] [31:0] $end
     $var wire 32 r ram_array[7] [31:0] $end
     $var wire 32 s ram_array[8] [31:0] $end
     $var wire 32 t ram_array[9] [31:0] $end
     $var wire 32 u ram_array[10] [31:0] $end
     $var wire 32 v ram_array[11] [31:0] $end
     $var wire 32 w ram_array[12] [31:0] $end
     $var wire 32 x ram_array[13] [31:0] $end
     $var wire 32 y ram_array[14] [31:0] $end
     $var wire 32 z ram_array[15] [31:0] $end
     $var wire 32 { ram_array[16] [31:0] $end
     $var wire 32 | ram_array[17] [31:0] $end
     $var wire 32 } ram_array[18] [31:0] $end
     $var wire 32 ~ ram_array[19] [31:0] $end
     $var wire 32 !! ram_array[20] [31:0] $end
     $var wire 32 "! ram_array[21] [31:0] $end
     $var wire 32 #! ram_array[22] [31:0] $end
     $var wire 32 $! ram_array[23] [31:0] $end
     $var wire 32 %! ram_array[24] [31:0] $end
     $var wire 32 &! ram_array[25] [31:0] $end
     $var wire 32 '! ram_array[26] [31:0] $end
     $var wire 32 (! ram_array[27] [31:0] $end
     $var wire 32 )! ram_array[28] [31:0] $end
     $var wire 32 *! ram_array[29] [31:0] $end
     $var wire 32 +! ram_array[30] [31:0] $end
     $var wire 32 ,! ram_array[31] [31:0] $end
    $upscope $end
    $scope module sign_ext1 $end
     $var wire 25 b Imm [31:7] $end
     $var wire 3 a ImmSrc [2:0] $end
     $var wire 32 , ImmExt [31:0] $end
    $upscope $end
   $upscope $end
   $scope module dter $end
    $var wire 1 -! clk $end
    $var wire 1 \ rst $end
    $var wire 1 0 RegWriteD $end
    $var wire 2 1 ResultSrcD [1:0] $end
    $var wire 1 2 MemWriteD $end
    $var wire 2 3 JumpD [1:0] $end
    $var wire 1 4 BranchD $end
    $var wire 4 6 ALUControlD [3:0] $end
    $var wire 1 8 ALUSrcAD $end
    $var wire 1 7 ALUSrcBD $end
    $var wire 3 9 AddressingControlD [2:0] $end
    $var wire 3 5 BranchTypeD [2:0] $end
    $var wire 32 3! RD1D [31:0] $end
    $var wire 32 4! RD2D [31:0] $end
    $var wire 32 ' PCD [31:0] $end
    $var wire 5 - Rs1D [4:0] $end
    $var wire 5 . Rs2D [4:0] $end
    $var wire 5 / RdD [4:0] $end
    $var wire 32 , ImmExtD [31:0] $end
    $var wire 32 ( PCPlus4D [31:0] $end
    $var wire 1 : RegWriteE $end
    $var wire 2 ; ResultSrcE [1:0] $end
    $var wire 1 < MemWriteE $end
    $var wire 2 = JumpE [1:0] $end
    $var wire 1 > BranchE $end
    $var wire 4 ? ALUControlE [3:0] $end
    $var wire 1 @ ALUSrcAE $end
    $var wire 1 A ALUSrcBE $end
    $var wire 3 C AddressingControlE [2:0] $end
    $var wire 3 D BranchTypeE [2:0] $end
    $var wire 32 E RD1E [31:0] $end
    $var wire 32 F RD2E [31:0] $end
    $var wire 32 G PCE [31:0] $end
    $var wire 5 H Rs1E [4:0] $end
    $var wire 5 I Rs2E [4:0] $end
    $var wire 5 J RdE [4:0] $end
    $var wire 32 K ImmExtE [31:0] $end
    $var wire 32 Z PCPlus4E [31:0] $end
   $upscope $end
   $scope module etmr $end
    $var wire 1 -! clk $end
    $var wire 1 : RegWriteE $end
    $var wire 2 ; ResultSrcE [1:0] $end
    $var wire 1 < MemWriteE $end
    $var wire 3 C AddressingControlE [2:0] $end
    $var wire 32 & ALUResultE [31:0] $end
    $var wire 32 Y WriteDataE [31:0] $end
    $var wire 5 J RdE [4:0] $end
    $var wire 32 Z PCPlus4E [31:0] $end
    $var wire 1 L RegWriteM $end
    $var wire 2 M ResultSrcM [1:0] $end
    $var wire 1 N MemWriteM $end
    $var wire 3 O AddressingControlM [2:0] $end
    $var wire 32 P ALUResultM [31:0] $end
    $var wire 32 Q WriteDataM [31:0] $end
    $var wire 5 R RdM [4:0] $end
    $var wire 32 S PCPlus4M [31:0] $end
   $upscope $end
   $scope module execute1 $end
    $var wire 2 = JumpE [1:0] $end
    $var wire 1 > BranchE $end
    $var wire 4 ? ALUControlE [3:0] $end
    $var wire 1 @ ALUSrcAE $end
    $var wire 1 A ALUSrcBE $end
    $var wire 32 G PCE [31:0] $end
    $var wire 32 K ImmExtE [31:0] $end
    $var wire 32 B SrcAE [31:0] $end
    $var wire 32 Y WriteDataE [31:0] $end
    $var wire 3 D BranchTypeE [2:0] $end
    $var wire 2 # PCSrcE [1:0] $end
    $var wire 32 & ALUResultE [31:0] $end
    $var wire 32 % PCTargetE [31:0] $end
    $var wire 1 c ZeroE $end
    $var wire 32 d SrcBE [31:0] $end
    $var wire 32 e SrcAEE [31:0] $end
    $scope module alu1 $end
     $var wire 32 e SrcA [31:0] $end
     $var wire 32 d SrcB [31:0] $end
     $var wire 4 ? ALUControl [3:0] $end
     $var wire 32 & ALUResult [31:0] $end
     $var wire 1 c Zero $end
    $upscope $end
    $scope module mux2 $end
     $var wire 1 A s $end
     $var wire 32 Y d0 [31:0] $end
     $var wire 32 K d1 [31:0] $end
     $var wire 32 d y [31:0] $end
    $upscope $end
    $scope module mux3 $end
     $var wire 1 @ s $end
     $var wire 32 B d0 [31:0] $end
     $var wire 32 G d1 [31:0] $end
     $var wire 32 e y [31:0] $end
    $upscope $end
    $scope module pcsrc_unit1 $end
     $var wire 2 = Jump [1:0] $end
     $var wire 1 > Branch $end
     $var wire 1 c Zero $end
     $var wire 3 D BranchType [2:0] $end
     $var wire 2 # PCSrc [1:0] $end
    $upscope $end
   $upscope $end
   $scope module fetch1 $end
    $var wire 1 -! clk $end
    $var wire 1 .! rst $end
    $var wire 1 [ en $end
    $var wire 2 # PCSrcE [1:0] $end
    $var wire 32 % PCTargetE [31:0] $end
    $var wire 32 & ALUResultE [31:0] $end
    $var wire 32 0! InstrF [31:0] $end
    $var wire 32 1! PCF [31:0] $end
    $var wire 32 2! PCPlus4F [31:0] $end
    $var wire 32 1! PCCurr [31:0] $end
    $scope module instr_mem1 $end
     $var wire 32 1! A [31:0] $end
     $var wire 32 0! RD [31:0] $end
    $upscope $end
    $scope module pc_inst $end
     $var wire 1 [ en $end
     $var wire 1 -! clk $end
     $var wire 1 .! rst $end
     $var wire 2 # PCSrc [1:0] $end
     $var wire 32 % PCTarget [31:0] $end
     $var wire 32 & ALUResult [31:0] $end
     $var wire 32 2! PCPlus4 [31:0] $end
     $var wire 32 1! PC [31:0] $end
     $var wire 32 5! PCNext [31:0] $end
    $upscope $end
   $upscope $end
   $scope module ftdr $end
    $var wire 1 -! clk $end
    $var wire 1 ] rst $end
    $var wire 1 [ en $end
    $var wire 32 1! PCF [31:0] $end
    $var wire 32 2! PCPlus4F [31:0] $end
    $var wire 32 0! InstrF [31:0] $end
    $var wire 32 ' PCD [31:0] $end
    $var wire 32 ( PCPlus4D [31:0] $end
    $var wire 32 $ InstrD [31:0] $end
   $upscope $end
   $scope module hazard_unit_top1 $end
    $var wire 5 - Rs1D [4:0] $end
    $var wire 5 . Rs2D [4:0] $end
    $var wire 5 H Rs1E [4:0] $end
    $var wire 5 I Rs2E [4:0] $end
    $var wire 5 R RdM [4:0] $end
    $var wire 5 * RdW [4:0] $end
    $var wire 5 J RdE [4:0] $end
    $var wire 1 + RegWriteW $end
    $var wire 1 L RegWriteM $end
    $var wire 32 P ALUResultM [31:0] $end
    $var wire 32 ) ResultW [31:0] $end
    $var wire 32 E RD1E [31:0] $end
    $var wire 32 F RD2E [31:0] $end
    $var wire 2 ; ResultSrcE [1:0] $end
    $var wire 2 # PCSrcE [1:0] $end
    $var wire 32 B SrcAE [31:0] $end
    $var wire 32 Y WriteDataE [31:0] $end
    $var wire 1 [ FEN $end
    $var wire 1 [ DEN $end
    $var wire 1 \ RSTE $end
    $var wire 1 ] RSTD $end
    $var wire 2 f selAE [1:0] $end
    $var wire 2 g selBE [1:0] $end
    $var wire 1 h flushE1 $end
    $var wire 1 i flushE2 $end
    $scope module aemux $end
     $var wire 2 f s [1:0] $end
     $var wire 32 E d0 [31:0] $end
     $var wire 32 ) d1 [31:0] $end
     $var wire 32 P d2 [31:0] $end
     $var wire 32 B y [31:0] $end
    $upscope $end
    $scope module bemux $end
     $var wire 2 g s [1:0] $end
     $var wire 32 F d0 [31:0] $end
     $var wire 32 ) d1 [31:0] $end
     $var wire 32 P d2 [31:0] $end
     $var wire 32 Y y [31:0] $end
    $upscope $end
    $scope module control_hazard_unit1 $end
     $var wire 2 # PCSrcE [1:0] $end
     $var wire 1 ] RSTD $end
     $var wire 1 i RSTE $end
    $upscope $end
    $scope module hazard_unit1 $end
     $var wire 5 H Rs1E [4:0] $end
     $var wire 5 I Rs2E [4:0] $end
     $var wire 5 R RdM [4:0] $end
     $var wire 5 * RdW [4:0] $end
     $var wire 1 + RegWriteW $end
     $var wire 1 L RegWriteM $end
     $var wire 2 f ForwardAE [1:0] $end
     $var wire 2 g ForwardBE [1:0] $end
    $upscope $end
    $scope module stall_unit1 $end
     $var wire 2 ; ResultSrcE [1:0] $end
     $var wire 5 J RDE [4:0] $end
     $var wire 5 - Rs1D [4:0] $end
     $var wire 5 . Rs2D [4:0] $end
     $var wire 1 [ FEN $end
     $var wire 1 [ DEN $end
     $var wire 1 h RSTE $end
    $upscope $end
   $upscope $end
   $scope module memory1 $end
    $var wire 1 -! clk $end
    $var wire 1 N MemWriteM $end
    $var wire 32 P ALUResultM [31:0] $end
    $var wire 32 Q WriteDataM [31:0] $end
    $var wire 3 O AddressingControlM [2:0] $end
    $var wire 32 T RDM [31:0] $end
    $scope module data_mem1 $end
     $var wire 32 7! XLEN [31:0] $end
     $var wire 32 8! ADDRESS_WIDTH [31:0] $end
     $var wire 32 9! DATA_WIDTH [31:0] $end
     $var wire 1 -! clk $end
     $var wire 1 N WE $end
     $var wire 32 P A [31:0] $end
     $var wire 32 Q WD [31:0] $end
     $var wire 3 O AddressingControl [2:0] $end
     $var wire 32 T RD [31:0] $end
     $var wire 17 j addr [16:0] $end
    $upscope $end
   $upscope $end
   $scope module mtwr $end
    $var wire 1 -! clk $end
    $var wire 1 L RegWriteM $end
    $var wire 2 M ResultSrcM [1:0] $end
    $var wire 32 P ALUResultM [31:0] $end
    $var wire 32 T ReadDataM [31:0] $end
    $var wire 5 R RdM [4:0] $end
    $var wire 32 S PCPlus4M [31:0] $end
    $var wire 1 + RegWriteW $end
    $var wire 2 U ResultSrcW [1:0] $end
    $var wire 32 V ALUResultW [31:0] $end
    $var wire 32 W ReadDataW [31:0] $end
    $var wire 5 * RdW [4:0] $end
    $var wire 32 X PCPlus4W [31:0] $end
   $upscope $end
   $scope module writeback1 $end
    $var wire 32 V ALUResultW [31:0] $end
    $var wire 32 W ReadDataW [31:0] $end
    $var wire 32 X PCPlus4W [31:0] $end
    $var wire 2 U ResultSrcW [1:0] $end
    $var wire 32 ) ResultW [31:0] $end
    $scope module mux3input2 $end
     $var wire 2 U s [1:0] $end
     $var wire 32 V d0 [31:0] $end
     $var wire 32 W d1 [31:0] $end
     $var wire 32 X d2 [31:0] $end
     $var wire 32 ) y [31:0] $end
    $upscope $end
   $upscope $end
  $upscope $end
 $upscope $end
$enddefinitions $end


#0
b00 #
b00000000000000000000000000000000 $
b00000000000000000000000000000000 %
b00000000000000000000000000000000 &
b00000000000000000000000000000000 '
b00000000000000000000000000000000 (
b00000000000000000000000000000000 )
b00000 *
0+
b00000000000000000000000000000000 ,
b00000 -
b00000 .
b00000 /
00
b00 1
02
b00 3
04
b000 5
b0000 6
07
08
b000 9
0:
b00 ;
0<
b00 =
0>
b0000 ?
0@
0A
b00000000000000000000000000000000 B
b000 C
b000 D
b00000000000000000000000000000000 E
b00000000000000000000000000000000 F
b00000000000000000000000000000000 G
b00000 H
b00000 I
b00000 J
b00000000000000000000000000000000 K
0L
b00 M
0N
b000 O
b00000000000000000000000000000000 P
b00000000000000000000000000000000 Q
b00000 R
b00000000000000000000000000000000 S
b00000000000000000000000000000000 T
b00 U
b00000000000000000000000000000000 V
b00000000000000000000000000000000 W
b00000000000000000000000000000000 X
b00000000000000000000000000000000 Y
b00000000000000000000000000000000 Z
1[
0\
0]
b0000000 ^
b000 _
b0000000 `
b000 a
b0000000000000000000000000 b
1c
b00000000000000000000000000000000 d
b00000000000000000000000000000000 e
b00 f
b00 g
0h
0i
b00000000000000000 j
b00000000000000000000000000000000 k
b00000000000000000000000000000000 l
b00000000000000000000000000000000 m
b00000000000000000000000000000000 n
b00000000000000000000000000000000 o
b00000000000000000000000000000000 p
b00000000000000000000000000000000 q
b00000000000000000000000000000000 r
b00000000000000000000000000000000 s
b00000000000000000000000000000000 t
b00000000000000000000000000000000 u
b00000000000000000000000000000000 v
b00000000000000000000000000000000 w
b00000000000000000000000000000000 x
b00000000000000000000000000000000 y
b00000000000000000000000000000000 z
b00000000000000000000000000000000 {
b00000000000000000000000000000000 |
b00000000000000000000000000000000 }
b00000000000000000000000000000000 ~
b00000000000000000000000000000000 !!
b00000000000000000000000000000000 "!
b00000000000000000000000000000000 #!
b00000000000000000000000000000000 $!
b00000000000000000000000000000000 %!
b00000000000000000000000000000000 &!
b00000000000000000000000000000000 '!
b00000000000000000000000000000000 (!
b00000000000000000000000000000000 )!
b00000000000000000000000000000000 *!
b00000000000000000000000000000000 +!
b00000000000000000000000000000000 ,!
1-!
1.!
b00000000000000000000000000000000 /!
b00000000000000000000000010010011 0!
b00000000000000000000000000000000 1!
b00000000000000000000000000000100 2!
b00000000000000000000000000000000 3!
b00000000000000000000000000000000 4!
b00000000000000000000000000000100 5!
b00000000000000000000000000000101 6!
b00000000000000000000000000100000 7!
b00000000000000000000000000010001 8!
b00000000000000000000000000001000 9!
#1
0-!
#2
b00000000000000000000000010010011 $
b00000000000000000000000000000100 (
b00001 /
10
17
b0010011 ^
b0000000000000000000000001 b
1-!
#3
0-!
#4
1:
1A
b00001 J
b00000000000000000000000000000100 Z
1-!
#5
0-!
#6
1L
b00001 R
b00000000000000000000000000000100 S
1-!
#7
0-!
#8
b00001 *
1+
b00000000000000000000000000000100 X
1-!
#9
0-!
#10
1-!
#11
0-!
#12
1-!
#13
0-!
#14
1-!
#15
0-!
#16
1-!
#17
0-!
#18
1-!
#19
0-!
#20
1-!
0.!
b00000000101000000000000100010011 0!
b00000000000000000000000000000100 1!
b00000000000000000000000000001000 2!
b00000000000000000000000000001000 5!
#21
0-!
#22
b00000000101000000000000100010011 $
b00000000000000000000000000000100 '
b00000000000000000000000000001000 (
b00000000000000000000000000001010 ,
b01010 .
b00010 /
b0000000010100000000000010 b
1-!
b00000000101000000000001000010011 0!
b00000000000000000000000000001000 1!
b00000000000000000000000000001100 2!
b00000000000000000000000000001100 5!
#23
0-!
#24
b00000000101000000000001000010011 $
b00000000000000000000000000001110 %
b00000000000000000000000000001010 &
b00000000000000000000000000001000 '
b00000000000000000000000000001100 (
b00100 /
b00000000000000000000000000000100 G
b01010 I
b00010 J
b00000000000000000000000000001010 K
b00000000000000000000000000001000 Z
b0000000010100000000000100 b
0c
b00000000000000000000000000001010 d
1-!
b00000000010000010010000000100011 0!
b00000000000000000000000000001100 1!
b00000000000000000000000000010000 2!
b00000000000000000000000000010000 5!
#25
0-!
#26
b00000000010000010010000000100011 $
b00000000000000000000000000010010 %
b00000000000000000000000000001100 '
b00000000000000000000000000010000 (
b00000000000000000000000000000000 ,
b00010 -
b00100 .
b00000 /
00
12
b010 9
b00000000000000000000000000001000 G
b00100 J
b00000000000000000000000000001010 P
b00010 R
b00000000000000000000000000001000 S
b00000000000000000000000000001100 Z
b0100011 ^
b010 _
b001 a
b0000000001000001001000000 b
b00000000000001010 j
1-!
b00000000000100010010000000100011 0!
b00000000000000000000000000010000 1!
b00000000000000000000000000010100 2!
b00000000000000000000000000010100 5!
#27
0-!
#28
b00000000000100010010000000100011 $
b00000000000000000000000000001100 %
b00000000000000000000000000010000 '
b00000000000000000000000000010100 (
b00000000000000000000000000001010 )
b00010 *
b00001 .
0:
1<
b00000000000000000000000000001010 B
b010 C
b00000000000000000000000000001100 G
b00010 H
b00100 I
b00000 J
b00000000000000000000000000000000 K
b00100 R
b00000000000000000000000000001100 S
b00000000000000000000000000001010 V
b00000000000000000000000000001000 X
b00000000000000000000000000001010 Y
b00000000000000000000000000010000 Z
b0000000000010001001000000 b
b00000000000000000000000000000000 d
b00000000000000000000000000001010 e
b01 f
b10 g
1-!
b00000000000000010010001010000011 0!
b00000000000000000000000000010100 1!
b00000000000000000000000000011000 2!
b00000000000000000000000000011000 5!
#29
b00000000000000000000000000001010 m
0-!
b00000000000000000000000000001010 3!
#30
b00000000000000010010001010000011 $
b00000000000000000000000000010000 %
b00000000000000000000000000010100 '
b00000000000000000000000000011000 (
b00100 *
b00000 .
b00101 /
10
b01 1
02
b00000000000000000000000000001010 E
b00000000000000000000000000010000 G
b00001 I
0L
1N
b010 O
b00000000000000000000000000001010 Q
b00000 R
b00000000000000000000000000010000 S
b00000000000000000000000000001100 X
b00000000000000000000000000000000 Y
b00000000000000000000000000010100 Z
b0000011 ^
b000 a
b0000000000000001001000101 b
b00 f
b00 g
1-!
b00000000000000101000010100010011 0!
b00000000000000000000000000011000 1!
b00000000000000000000000000011100 2!
b00000000000000000000000000011100 5!
#31
b00000000000000000000000000001010 o
0-!
#32
b00000000000000101000010100010011 $
b00000000000000000000000000010100 %
b00000000000000000000000000011000 '
b00000000000000000000000000011100 (
b00000 *
0+
b00101 -
b01010 /
b00 1
b000 9
1:
b01 ;
0<
b00000000000000000000000000010100 G
b00000 I
b00101 J
b00000000000000000000000000000000 Q
b00000000000000000000000000010100 S
b00000000000000000000000000001010 T
b00000000000000000000000000010000 X
b00000000000000000000000000011000 Z
0[
1\
b0010011 ^
b000 _
b0000000000000010100001010 b
1h
1-!
b00000000000000000000000000000000 0!
b00000000000000000000000000011100 1!
b00000000000000000000000000100000 2!
b00000000000000000000000000000000 3!
b00000000000000000000000000100000 5!
#33
0-!
#34
b00000000000000000000000000000000 %
b00000000000000000000000000000000 &
0:
b00 ;
0A
b00000000000000000000000000000000 B
b000 C
b00000000000000000000000000000000 E
b00000000000000000000000000000000 G
b00000 H
b00000 J
1L
b01 M
0N
b00101 R
b00000000000000000000000000011000 S
b00000000000000000000000000000000 T
b00000000000000000000000000001010 W
b00000000000000000000000000010100 X
b00000000000000000000000000000000 Z
1[
0\
1c
b00000000000000000000000000000000 e
0h
1-!
#35
0-!
#36
b00000000000000000000000000000000 $
b00000000000000000000000000011000 %
b00000000000000000000000000011100 '
b00000000000000000000000000100000 (
b00000000000000000000000000000000 )
b00101 *
1+
b00000 -
b00000 /
00
07
1:
1A
b00000000000000000000000000011000 G
b00101 H
b01010 J
0L
b00 M
b000 O
b00000000000000000000000000000000 P
b00000 R
b00000000000000000000000000000000 S
b01 U
b00000000000000000000000000000000 W
b00000000000000000000000000011000 X
b00000000000000000000000000011100 Z
b0000000 ^
b0000000000000000000000000 b
b01 f
b00000000000000000 j
1-!
b00000000000000000000000000100000 1!
b00000000000000000000000000100100 2!
b00000000000000000000000000100100 5!
#37
0-!
#38
b00000000000000000000000000011100 %
b00000000000000000000000000100000 '
b00000000000000000000000000100100 (
b00000 *
0+
0:
0A
b00000000000000000000000000011100 G
b00000 H
b00000 J
1L
b01010 R
b00000000000000000000000000011100 S
b00 U
b00000000000000000000000000000000 V
b00000000000000000000000000000000 X
b00000000000000000000000000100000 Z
b00 f
1-!
b00000000000000000000000000100100 1!
b00000000000000000000000000101000 2!
b00000000000000000000000000101000 5!
#39
0-!
#40
b00000000000000000000000000100000 %
b00000000000000000000000000100100 '
b00000000000000000000000000101000 (
b01010 *
1+
b00000000000000000000000000100000 G
0L
b00000 R
b00000000000000000000000000100000 S
b00000000000000000000000000011100 X
b00000000000000000000000000100100 Z
1-!
b00000000000000000000000000101000 1!
b00000000000000000000000000101100 2!
b00000000000000000000000000101100 5!
#41
0-!
#42
b00000000000000000000000000100100 %
b00000000000000000000000000101000 '
b00000000000000000000000000101100 (
b00000 *
0+
b00000000000000000000000000100100 G
b00000000000000000000000000100100 S
b00000000000000000000000000100000 X
b00000000000000000000000000101000 Z
1-!
b00000000000000000000000000101100 1!
b00000000000000000000000000110000 2!
b00000000000000000000000000110000 5!
#43
0-!
#44
b00000000000000000000000000101000 %
b00000000000000000000000000101100 '
b00000000000000000000000000110000 (
b00000000000000000000000000101000 G
b00000000000000000000000000101000 S
b00000000000000000000000000100100 X
b00000000000000000000000000101100 Z
1-!
b00000000000000000000000000110000 1!
b00000000000000000000000000110100 2!
b00000000000000000000000000110100 5!
#45
0-!
#46
b00000000000000000000000000101100 %
b00000000000000000000000000110000 '
b00000000000000000000000000110100 (
b00000000000000000000000000101100 G
b00000000000000000000000000101100 S
b00000000000000000000000000101000 X
b00000000000000000000000000110000 Z
1-!
b00000000000000000000000000110100 1!
b00000000000000000000000000111000 2!
b00000000000000000000000000111000 5!
#47
0-!
#48
b00000000000000000000000000110000 %
b00000000000000000000000000110100 '
b00000000000000000000000000111000 (
b00000000000000000000000000110000 G
b00000000000000000000000000110000 S
b00000000000000000000000000101100 X
b00000000000000000000000000110100 Z
1-!
b00000000000000000000000000111000 1!
b00000000000000000000000000111100 2!
b00000000000000000000000000111100 5!
#49
0-!
#50
b00000000000000000000000000110100 %
b00000000000000000000000000111000 '
b00000000000000000000000000111100 (
b00000000000000000000000000110100 G
b00000000000000000000000000110100 S
b00000000000000000000000000110000 X
b00000000000000000000000000111000 Z
1-!
b00000000000000000000000000111100 1!
b00000000000000000000000001000000 2!
b00000000000000000000000001000000 5!
#51
0-!
#52
b00000000000000000000000000111000 %
b00000000000000000000000000111100 '
b00000000000000000000000001000000 (
b00000000000000000000000000111000 G
b00000000000000000000000000111000 S
b00000000000000000000000000110100 X
b00000000000000000000000000111100 Z
1-!
b00000000000000000000000001000000 1!
b00000000000000000000000001000100 2!
b00000000000000000000000001000100 5!
#53
0-!
#54
b00000000000000000000000000111100 %
b00000000000000000000000001000000 '
b00000000000000000000000001000100 (
b00000000000000000000000000111100 G
b00000000000000000000000000111100 S
b00000000000000000000000000111000 X
b00000000000000000000000001000000 Z
1-!
b00000000000000000000000001000100 1!
b00000000000000000000000001001000 2!
b00000000000000000000000001001000 5!
#55
0-!
#56
b00000000000000000000000001000000 %
b00000000000000000000000001000100 '
b00000000000000000000000001001000 (
b00000000000000000000000001000000 G
b00000000000000000000000001000000 S
b00000000000000000000000000111100 X
b00000000000000000000000001000100 Z
1-!
b00000000000000000000000001001000 1!
b00000000000000000000000001001100 2!
b00000000000000000000000001001100 5!
#57
0-!
#58
b00000000000000000000000001000100 %
b00000000000000000000000001001000 '
b00000000000000000000000001001100 (
b00000000000000000000000001000100 G
b00000000000000000000000001000100 S
b00000000000000000000000001000000 X
b00000000000000000000000001001000 Z
1-!
b00000000000000000000000001001100 1!
b00000000000000000000000001010000 2!
b00000000000000000000000001010000 5!
#59
0-!
#60
b00000000000000000000000001001000 %
b00000000000000000000000001001100 '
b00000000000000000000000001010000 (
b00000000000000000000000001001000 G
b00000000000000000000000001001000 S
b00000000000000000000000001000100 X
b00000000000000000000000001001100 Z
1-!
b00000000000000000000000001010000 1!
b00000000000000000000000001010100 2!
b00000000000000000000000001010100 5!
#61
0-!
#62
b00000000000000000000000001001100 %
b00000000000000000000000001010000 '
b00000000000000000000000001010100 (
b00000000000000000000000001001100 G
b00000000000000000000000001001100 S
b00000000000000000000000001001000 X
b00000000000000000000000001010000 Z
1-!
b00000000000000000000000001010100 1!
b00000000000000000000000001011000 2!
b00000000000000000000000001011000 5!
#63
0-!
#64
b00000000000000000000000001010000 %
b00000000000000000000000001010100 '
b00000000000000000000000001011000 (
b00000000000000000000000001010000 G
b00000000000000000000000001010000 S
b00000000000000000000000001001100 X
b00000000000000000000000001010100 Z
1-!
b00000000000000000000000001011000 1!
b00000000000000000000000001011100 2!
b00000000000000000000000001011100 5!
#65
0-!
