tb/top.vcd
$version Generated by VerilatedVcd $end
$date Mon Dec  8 16:50:20 2025 $end
$timescale 1ps $end

 $scope module TOP $end
  $var wire 32 g a0 [31:0] $end
  $var wire  1 e clk $end
  $var wire  1 f rst $end
  $var wire  1 h trigger $end
  $scope module top $end
   $var wire  4 % ALUControl [3:0] $end
   $var wire  1 & ALUSrcA $end
   $var wire  1 ' ALUSrcB $end
   $var wire  3 + AddressingControl [2:0] $end
   $var wire  3 * ImmSrc [2:0] $end
   $var wire 32 - Instr [31:0] $end
   $var wire  1 ( MemWrite $end
   $var wire  2 # PCSrc [1:0] $end
   $var wire  1 $ RegWrite $end
   $var wire  2 ) ResultSrc [1:0] $end
   $var wire  1 , Zero $end
   $var wire 32 g a0 [31:0] $end
   $var wire  1 e clk $end
   $var wire  1 f rst $end
   $var wire  1 h trigger $end
   $scope module ctrl_inst $end
    $var wire  4 % ALUControl [3:0] $end
    $var wire  1 & ALUSrcA $end
    $var wire  1 ' ALUSrcB $end
    $var wire  3 + AddressingControl [2:0] $end
    $var wire  1 . Branch $end
    $var wire  3 / BranchType [2:0] $end
    $var wire  3 * ImmSrc [2:0] $end
    $var wire 32 - Instr [31:0] $end
    $var wire  2 0 Jump [1:0] $end
    $var wire  1 ( MemWrite $end
    $var wire  2 # PCSrc [1:0] $end
    $var wire  1 $ RegWrite $end
    $var wire  2 ) ResultSrc [1:0] $end
    $var wire  1 , Zero $end
    $var wire  3 2 funct3 [2:0] $end
    $var wire  7 3 funct7 [6:0] $end
    $var wire  7 1 opcode [6:0] $end
    $scope module control_unit $end
     $var wire  4 % ALUControl [3:0] $end
     $var wire  1 & ALUSrcA $end
     $var wire  1 ' ALUSrcB $end
     $var wire  3 + AddressingControl [2:0] $end
     $var wire  1 . Branch $end
     $var wire  3 / BranchType [2:0] $end
     $var wire  3 * ImmSrc [2:0] $end
     $var wire  2 0 Jump [1:0] $end
     $var wire  1 ( MemWrite $end
     $var wire  1 $ RegWrite $end
     $var wire  2 ) ResultSrc [1:0] $end
     $var wire  3 2 funct3 [2:0] $end
     $var wire  7 3 funct7 [6:0] $end
     $var wire  7 1 opcode [6:0] $end
    $upscope $end
    $scope module pcsrc_unit_inst $end
     $var wire  1 . Branch $end
     $var wire  3 / BranchType [2:0] $end
     $var wire  2 0 Jump [1:0] $end
     $var wire  2 # PCSrc [1:0] $end
     $var wire  1 , Zero $end
    $upscope $end
   $upscope $end
   $scope module dp_inst $end
    $var wire  4 % ALUControl [3:0] $end
    $var wire 32 8 ALUResult [31:0] $end
    $var wire  1 & ALUSrcA $end
    $var wire  1 ' ALUSrcB $end
    $var wire  3 + AddressingControl [2:0] $end
    $var wire 32 6 ImmExt [31:0] $end
    $var wire  3 * ImmSrc [2:0] $end
    $var wire 32 - Instr [31:0] $end
    $var wire 32 7 MemData [31:0] $end
    $var wire  1 ( MemWrite $end
    $var wire 32 4 PC [31:0] $end
    $var wire 32 5 PCPlus4 [31:0] $end
    $var wire  2 # PCSrc [1:0] $end
    $var wire 32 ; ReadData1 [31:0] $end
    $var wire 32 < ReadData2 [31:0] $end
    $var wire  1 $ RegWrite $end
    $var wire 32 = ResultData [31:0] $end
    $var wire  2 ) ResultSrc [1:0] $end
    $var wire 32 9 SrcA [31:0] $end
    $var wire 32 : SrcB [31:0] $end
    $var wire  1 , Zero $end
    $var wire 32 g a0 [31:0] $end
    $var wire  1 e clk $end
    $var wire  1 f rst $end
    $scope module alu_inst $end
     $var wire  4 % ALUControl [3:0] $end
     $var wire 32 8 ALUResult [31:0] $end
     $var wire 32 9 SrcA [31:0] $end
     $var wire 32 : SrcB [31:0] $end
     $var wire  1 , Zero $end
    $upscope $end
    $scope module data_mem_inst $end
     $var wire 32 8 A [31:0] $end
     $var wire 32 j ADDRESS_WIDTH [31:0] $end
     $var wire  3 + AddressingControl [2:0] $end
     $var wire 32 k DATA_WIDTH [31:0] $end
     $var wire 32 7 RD [31:0] $end
     $var wire 32 < WD [31:0] $end
     $var wire  1 ( WE $end
     $var wire 32 i XLEN [31:0] $end
     $var wire 17 > addr [16:0] $end
     $var wire  1 e clk $end
    $upscope $end
    $scope module instr_mem_inst $end
     $var wire 32 4 A [31:0] $end
     $var wire 32 - RD [31:0] $end
    $upscope $end
    $scope module pc_inst $end
     $var wire 32 8 ALUResult [31:0] $end
     $var wire 32 6 ImmExt [31:0] $end
     $var wire 32 4 PC [31:0] $end
     $var wire 32 ? PCNext [31:0] $end
     $var wire 32 5 PCPlus4 [31:0] $end
     $var wire  2 # PCSrc [1:0] $end
     $var wire 32 @ PCTarget [31:0] $end
     $var wire 32 i WIDTH [31:0] $end
     $var wire  1 e clk $end
     $var wire  1 f rst $end
    $upscope $end
    $scope module reg_file_inst $end
     $var wire  5 B AD1 [4:0] $end
     $var wire  5 C AD2 [4:0] $end
     $var wire  5 A AD3 [4:0] $end
     $var wire 32 l ADDRESS_WIDTH [31:0] $end
     $var wire 32 i DATA_WIDTH [31:0] $end
     $var wire 32 ; RD1 [31:0] $end
     $var wire 32 < RD2 [31:0] $end
     $var wire 32 = WD3 [31:0] $end
     $var wire  1 $ WE3 $end
     $var wire 32 g a0 [31:0] $end
     $var wire  1 e clk $end
     $var wire 32 D ram_array[0] [31:0] $end
     $var wire 32 N ram_array[10] [31:0] $end
     $var wire 32 O ram_array[11] [31:0] $end
     $var wire 32 P ram_array[12] [31:0] $end
     $var wire 32 Q ram_array[13] [31:0] $end
     $var wire 32 R ram_array[14] [31:0] $end
     $var wire 32 S ram_array[15] [31:0] $end
     $var wire 32 T ram_array[16] [31:0] $end
     $var wire 32 U ram_array[17] [31:0] $end
     $var wire 32 V ram_array[18] [31:0] $end
     $var wire 32 W ram_array[19] [31:0] $end
     $var wire 32 E ram_array[1] [31:0] $end
     $var wire 32 X ram_array[20] [31:0] $end
     $var wire 32 Y ram_array[21] [31:0] $end
     $var wire 32 Z ram_array[22] [31:0] $end
     $var wire 32 [ ram_array[23] [31:0] $end
     $var wire 32 \ ram_array[24] [31:0] $end
     $var wire 32 ] ram_array[25] [31:0] $end
     $var wire 32 ^ ram_array[26] [31:0] $end
     $var wire 32 _ ram_array[27] [31:0] $end
     $var wire 32 ` ram_array[28] [31:0] $end
     $var wire 32 a ram_array[29] [31:0] $end
     $var wire 32 F ram_array[2] [31:0] $end
     $var wire 32 b ram_array[30] [31:0] $end
     $var wire 32 c ram_array[31] [31:0] $end
     $var wire 32 G ram_array[3] [31:0] $end
     $var wire 32 H ram_array[4] [31:0] $end
     $var wire 32 I ram_array[5] [31:0] $end
     $var wire 32 J ram_array[6] [31:0] $end
     $var wire 32 K ram_array[7] [31:0] $end
     $var wire 32 L ram_array[8] [31:0] $end
     $var wire 32 M ram_array[9] [31:0] $end
    $upscope $end
    $scope module sign_ext_inst $end
     $var wire 25 d Imm [31:7] $end
     $var wire 32 6 ImmExt [31:0] $end
     $var wire  3 * ImmSrc [2:0] $end
    $upscope $end
   $upscope $end
  $upscope $end
 $upscope $end
$enddefinitions $end


#0
b00 #
0$
b0000 %
0&
0'
0(
b00 )
b000 *
b000 +
0,
b00000000000000000000000000000000 -
0.
b000 /
b00 0
b0000000 1
b000 2
b0000000 3
b00000000000000000000000000000000 4
b00000000000000000000000000000000 5
b00000000000000000000000000000000 6
b00000000000000000000000000000000 7
b00000000000000000000000000000000 8
b00000000000000000000000000000000 9
b00000000000000000000000000000000 :
b00000000000000000000000000000000 ;
b00000000000000000000000000000000 <
b00000000000000000000000000000000 =
b00000000000000000 >
b00000000000000000000000000000000 ?
b00000000000000000000000000000000 @
b00000 A
b00000 B
b00000 C
b00000000000000000000000000000000 D
b00000000000000000000000000000000 E
b00000000000000000000000000000000 F
b00000000000000000000000000000000 G
b00000000000000000000000000000000 H
b00000000000000000000000000000000 I
b00000000000000000000000000000000 J
b00000000000000000000000000000000 K
b00000000000000000000000000000000 L
b00000000000000000000000000000000 M
b00000000000000000000000000000000 N
b00000000000000000000000000000000 O
b00000000000000000000000000000000 P
b00000000000000000000000000000000 Q
b00000000000000000000000000000000 R
b00000000000000000000000000000000 S
b00000000000000000000000000000000 T
b00000000000000000000000000000000 U
b00000000000000000000000000000000 V
b00000000000000000000000000000000 W
b00000000000000000000000000000000 X
b00000000000000000000000000000000 Y
b00000000000000000000000000000000 Z
b00000000000000000000000000000000 [
b00000000000000000000000000000000 \
b00000000000000000000000000000000 ]
b00000000000000000000000000000000 ^
b00000000000000000000000000000000 _
b00000000000000000000000000000000 `
b00000000000000000000000000000000 a
b00000000000000000000000000000000 b
b00000000000000000000000000000000 c
b0000000000000000000000000 d
1e
0f
b00000000000000000000000000000000 g
0h
b00000000000000000000000000100000 i
b00000000000000000000000000010001 j
b00000000000000000000000000001000 k
b00000000000000000000000000000101 l
#1
1$
1'
b00000101010100000000111000010011 -
b0010011 1
b0000010 3
b00000000000000000000000000000100 5
b00000000000000000000000001010101 6
b00000000000000000000000001010101 8
b00000000000000000000000001010101 :
b00000000000000000000000001010101 =
b00000000001010101 >
b00000000000000000000000000000100 ?
b00000000000000000000000001010101 @
b11100 A
b10101 C
b0000010101010000000011100 d
0e
#2
b00001111111100000000001100010011 -
b0000111 3
b00000000000000000000000000000100 4
b00000000000000000000000000001000 5
b00000000000000000000000011111111 6
b00000000000000000000000011111111 8
b00000000000000000000000011111111 :
b00000000000000000000000011111111 =
b00000000011111111 >
b00000000000000000000000000001000 ?
b00000000000000000000000100000011 @
b00110 A
b11111 C
b00000000000000000000000001010101 `
b0000111111110000000000110 d
1e
#3
0e
#4
b1111 %
b100 *
b00000000000000000001000100110111 -
b0110111 1
b001 2
b0000000 3
b00000000000000000000000000001000 4
b00000000000000000000000000001100 5
b00000000000000000001000000000000 6
b00000000000000000001000000000000 8
b00000000000000000001000000000000 :
b00000000000000000001000000000000 =
b00001000000000000 >
b00000000000000000000000000001100 ?
b00000000000000000001000000001000 @
b00010 A
b00000 C
b00000000000000000000000011111111 J
b0000000000000000000100010 d
1e
#5
0e
#6
b0000 %
b000 *
b00000000000100000000000110010011 -
b0010011 1
b000 2
b00000000000000000000000000001100 4
b00000000000000000000000000010000 5
b00000000000000000000000000000001 6
b00000000000000000000000000000001 8
b00000000000000000000000000000001 :
b00000000000000000000000000000001 =
b00000000000000001 >
b00000000000000000000000000010000 ?
b00000000000000000000000000001101 @
b00011 A
b00001 C
b00000000000000000001000000000000 F
b0000000000010000000000011 d
1e
#7
0e
#8
1&
b100 *
b00000000000000000000111110010111 -
b0010111 1
b00000000000000000000000000010000 4
b00000000000000000000000000010100 5
b00000000000000000000000000000000 6
b00000000000000000000000000010000 8
b00000000000000000000000000010000 9
b00000000000000000000000000000000 :
b00000000000000000000000000010000 =
b00000000000010000 >
b00000000000000000000000000010100 ?
b00000000000000000000000000010000 @
b11111 A
b00000 C
b00000000000000000000000000000001 G
b0000000000000000000011111 d
1e
#9
0e
#10
0&
b000 *
b00001000100011111000111110010011 -
b0010011 1
b0000100 3
b00000000000000000000000000010100 4
b00000000000000000000000000011000 5
b00000000000000000000000010001000 6
b00000000000000000000000010011000 8
b00000000000000000000000010001000 :
b00000000000000000000000000010000 ;
b00000000000000000000000010011000 =
b00000000010011000 >
b00000000000000000000000000011000 ?
b00000000000000000000000010011100 @
b11111 B
b01000 C
b00000000000000000000000000010000 c
b0000100010001111100011111 d
1e
#11
0e
#12
0$
0'
b00110000010111111001000001110011 -
b1110011 1
b001 2
b0011000 3
b00000000000000000000000000011000 4
b00000000000000000000000000011100 5
b00000000000000000000001100000101 6
b00000000000000000000000010011000 9
b00000000000000000000000000000000 :
b00000000000000000000000010011000 ;
b00000000000000000000000000011100 ?
b00000000000000000000001100011101 @
b00000 A
b00101 C
b00000000000000000000000010011000 c
b0011000001011111100100000 d
1e
#13
0e
#14
1$
1'
b00000000000100000000111110010011 -
b0010011 1
b000 2
b0000000 3
b00000000000000000000000000011100 4
b00000000000000000000000000100000 5
b00000000000000000000000000000001 6
b00000000000000000000000000000001 8
b00000000000000000000000000000000 9
b00000000000000000000000000000001 :
b00000000000000000000000000000000 ;
b00000000000000000000000000000001 =
b00000000000000001 >
b00000000000000000000000000100000 ?
b00000000000000000000000000011101 @
b11111 A
b00000 B
b00001 C
b0000000000010000000011111 d
1e
#15
0e
#16
b0101 %
b00000000101111111001111110010011 -
b001 2
b00000000000000000000000000100000 4
b00000000000000000000000000100100 5
b00000000000000000000000000001011 6
b00000000000000000000100000000000 8
b00000000000000000000000000000001 9
b00000000000000000000000000001011 :
b00000000000000000000000000000001 ;
b00000000000000000000100000000000 =
b00000100000000000 >
b00000000000000000000000000100100 ?
b00000000000000000000000000101011 @
b11111 B
b01011 C
b00000000000000000000000000000001 c
b0000000010111111100111111 d
1e
#17
0e
#18
0$
b0000 %
0'
b00110000010011111001000001110011 -
b1110011 1
b0011000 3
b00000000000000000000000000100100 4
b00000000000000000000000000101000 5
b00000000000000000000001100000100 6
b00000000000000000000100000000000 9
b00000000000000000000000000000000 :
b00000000000000000000100000000000 ;
b00000000000000000000000000101000 ?
b00000000000000000000001100101000 @
b00000 A
b00100 C
b00000000000000000000100000000000 c
b0011000001001111100100000 d
1e
#19
0e
#20
1$
1'
b00000000100000000000111110010011 -
b0010011 1
b000 2
b0000000 3
b00000000000000000000000000101000 4
b00000000000000000000000000101100 5
b00000000000000000000000000001000 6
b00000000000000000000000000001000 8
b00000000000000000000000000000000 9
b00000000000000000000000000001000 :
b00000000000000000000000000000000 ;
b00000000000000000000000000001000 =
b00000000000001000 >
b00000000000000000000000000101100 ?
b00000000000000000000000000110000 @
b11111 A
b00000 B
b01000 C
b0000000010000000000011111 d
1e
#21
0e
#22
0$
0'
b00110000000011111001000001110011 -
b1110011 1
b001 2
b0011000 3
b00000000000000000000000000101100 4
b00000000000000000000000000110000 5
b00000000000000000000001100000000 6
b00000000000000000000000000001000 9
b00000000000000000000000000000000 :
b00000000000000000000000000001000 ;
b00000000000000000000000000110000 ?
b00000000000000000000001100101100 @
b00000 A
b11111 B
b00000 C
b00000000000000000000000000001000 c
b0011000000001111100100000 d
1e
#23
0e
#24
1$
1'
1,
b00000000000000000000001010010011 -
b0010011 1
b000 2
b0000000 3
b00000000000000000000000000110000 4
b00000000000000000000000000110100 5
b00000000000000000000000000000000 6
b00000000000000000000000000000000 8
b00000000000000000000000000000000 9
b00000000000000000000000000000000 ;
b00000000000000000000000000000000 =
b00000000000000000 >
b00000000000000000000000000110100 ?
b00000000000000000000000000110000 @
b00101 A
b00000 B
b0000000000000000000000101 d
1e
#25
0e
#26
b00000000000000101000010100010011 -
b00000000000000000000000000110100 4
b00000000000000000000000000111000 5
b00000000000000000000000000111000 ?
b00000000000000000000000000110100 @
b01010 A
b00101 B
b0000000000000010100001010 d
1e
#27
0e
#28
0,
b00000000100100000000001110010011 -
b00000000000000000000000000111000 4
b00000000000000000000000000111100 5
b00000000000000000000000000001001 6
b00000000000000000000000000001001 8
b00000000000000000000000000001001 :
b00000000000000000000000000001001 =
b00000000000001001 >
b00000000000000000000000000111100 ?
b00000000000000000000000001000001 @
b00111 A
b00000 B
b01001 C
b0000000010010000000000111 d
1e
#29
0e
#30
b01 #
0'
b10 )
b011 *
1,
b00000011000000000000000011101111 -
b01 0
b1101111 1
b0000001 3
b00000000000000000000000000111100 4
b00000000000000000000000001000000 5
b00000000000000000000000000110000 6
b00000000000000000000000000000000 8
b00000000000000000000000000000000 :
b00000000000000000000000001000000 =
b00000000000000000 >
b00000000000000000000000001101100 ?
b00000000000000000000000001101100 @
b00001 A
b10000 C
b00000000000000000000000000001001 K
b0000001100000000000000001 d
1e
#31
0e
#32
b00 #
1'
b00 )
b000 *
0,
b11111111111100111000001110010011 -
b00 0
b0010011 1
b1111111 3
b00000000000000000000000001101100 4
b00000000000000000000000001110000 5
b11111111111111111111111111111111 6
b00000000000000000000000000001000 8
b00000000000000000000000000001001 9
b11111111111111111111111111111111 :
b00000000000000000000000000001001 ;
b00000000000000000000000000001000 <
b00000000000000000000000000001000 =
b00000000000001000 >
b00000000000000000000000001110000 ?
b00000000000000000000000001101011 @
b00111 A
b00111 B
b11111 C
b00000000000000000000000001000000 E
b1111111111110011100000111 d
1e
#33
0e
#34
b01 #
0$
b1000 %
0'
b010 *
b11111110011100011100111011100011 -
1.
b100 /
b1100011 1
b100 2
b00000000000000000000000001110000 4
b00000000000000000000000001110100 5
b11111111111111111111111111111100 6
b00000000000000000000000000000001 8
b00000000000000000000000000000001 9
b00000000000000000000000000001000 :
b00000000000000000000000000000001 ;
b00000000000000000000000000000001 =
b00000000000000001 >
b00000000000000000000000001101100 ?
b00000000000000000000000001101100 @
b11101 A
b00011 B
b00111 C
b00000000000000000000000000001000 K
b1111111001110001110011101 d
1e
#35
0e
#36
b00 #
1$
b0000 %
1'
b000 *
b11111111111100111000001110010011 -
0.
b000 /
b0010011 1
b000 2
b00000000000000000000000001101100 4
b00000000000000000000000001110000 5
b11111111111111111111111111111111 6
b00000000000000000000000000000111 8
b00000000000000000000000000001000 9
b11111111111111111111111111111111 :
b00000000000000000000000000001000 ;
b00000000000000000000000000000111 =
b00000000000000111 >
b00000000000000000000000001110000 ?
b00000000000000000000000001101011 @
b00111 A
b00111 B
b11111 C
b1111111111110011100000111 d
1e
#37
0e
#38
b01 #
0$
b1000 %
0'
b010 *
b11111110011100011100111011100011 -
1.
b100 /
b1100011 1
b100 2
b00000000000000000000000001110000 4
b00000000000000000000000001110100 5
b11111111111111111111111111111100 6
b00000000000000000000000000000001 8
b00000000000000000000000000000001 9
b00000000000000000000000000000111 :
b00000000000000000000000000000001 ;
b00000000000000000000000000000111 <
b00000000000000000000000000000001 =
b00000000000000001 >
b00000000000000000000000001101100 ?
b00000000000000000000000001101100 @
b11101 A
b00011 B
b00111 C
b00000000000000000000000000000111 K
b1111111001110001110011101 d
1e
#39
0e
#40
b00 #
1$
b0000 %
1'
b000 *
b11111111111100111000001110010011 -
0.
b000 /
b0010011 1
b000 2
b00000000000000000000000001101100 4
b00000000000000000000000001110000 5
b11111111111111111111111111111111 6
b00000000000000000000000000000110 8
b00000000000000000000000000000111 9
b11111111111111111111111111111111 :
b00000000000000000000000000000111 ;
b00000000000000000000000000001000 <
b00000000000000000000000000000110 =
b00000000000000110 >
b00000000000000000000000001110000 ?
b00000000000000000000000001101011 @
b00111 A
b00111 B
b11111 C
b1111111111110011100000111 d
1e
#41
0e
#42
b01 #
0$
b1000 %
0'
b010 *
b11111110011100011100111011100011 -
1.
b100 /
b1100011 1
b100 2
b00000000000000000000000001110000 4
b00000000000000000000000001110100 5
b11111111111111111111111111111100 6
b00000000000000000000000000000001 8
b00000000000000000000000000000001 9
b00000000000000000000000000000110 :
b00000000000000000000000000000001 ;
b00000000000000000000000000000110 <
b00000000000000000000000000000001 =
b00000000000000001 >
b00000000000000000000000001101100 ?
b00000000000000000000000001101100 @
b11101 A
b00011 B
b00111 C
b00000000000000000000000000000110 K
b1111111001110001110011101 d
1e
#43
0e
#44
b00 #
1$
b0000 %
1'
b000 *
b11111111111100111000001110010011 -
0.
b000 /
b0010011 1
b000 2
b00000000000000000000000001101100 4
b00000000000000000000000001110000 5
b11111111111111111111111111111111 6
b00000000000000000000000000000101 8
b00000000000000000000000000000110 9
b11111111111111111111111111111111 :
b00000000000000000000000000000110 ;
b00000000000000000000000000001000 <
b00000000000000000000000000000101 =
b00000000000000101 >
b00000000000000000000000001110000 ?
b00000000000000000000000001101011 @
b00111 A
b00111 B
b11111 C
b1111111111110011100000111 d
1e
#45
0e
#46
b01 #
0$
b1000 %
0'
b010 *
b11111110011100011100111011100011 -
1.
b100 /
b1100011 1
b100 2
b00000000000000000000000001110000 4
b00000000000000000000000001110100 5
b11111111111111111111111111111100 6
b00000000000000000000000000000001 8
b00000000000000000000000000000001 9
b00000000000000000000000000000101 :
b00000000000000000000000000000001 ;
b00000000000000000000000000000101 <
b00000000000000000000000000000001 =
b00000000000000001 >
b00000000000000000000000001101100 ?
b00000000000000000000000001101100 @
b11101 A
b00011 B
b00111 C
b00000000000000000000000000000101 K
b1111111001110001110011101 d
1e
#47
0e
#48
b00 #
1$
b0000 %
1'
b000 *
b11111111111100111000001110010011 -
0.
b000 /
b0010011 1
b000 2
b00000000000000000000000001101100 4
b00000000000000000000000001110000 5
b11111111111111111111111111111111 6
b00000000000000000000000000000100 8
b00000000000000000000000000000101 9
b11111111111111111111111111111111 :
b00000000000000000000000000000101 ;
b00000000000000000000000000001000 <
b00000000000000000000000000000100 =
b00000000000000100 >
b00000000000000000000000001110000 ?
b00000000000000000000000001101011 @
b00111 A
b00111 B
b11111 C
b1111111111110011100000111 d
1e
#49
0e
#50
b01 #
0$
b1000 %
0'
b010 *
b11111110011100011100111011100011 -
1.
b100 /
b1100011 1
b100 2
b00000000000000000000000001110000 4
b00000000000000000000000001110100 5
b11111111111111111111111111111100 6
b00000000000000000000000000000001 8
b00000000000000000000000000000001 9
b00000000000000000000000000000100 :
b00000000000000000000000000000001 ;
b00000000000000000000000000000100 <
b00000000000000000000000000000001 =
b00000000000000001 >
b00000000000000000000000001101100 ?
b00000000000000000000000001101100 @
b11101 A
b00011 B
b00111 C
b00000000000000000000000000000100 K
b1111111001110001110011101 d
1e
#51
0e
#52
b00 #
1$
b0000 %
1'
b000 *
b11111111111100111000001110010011 -
0.
b000 /
b0010011 1
b000 2
b00000000000000000000000001101100 4
b00000000000000000000000001110000 5
b11111111111111111111111111111111 6
b00000000000000000000000000000011 8
b00000000000000000000000000000100 9
b11111111111111111111111111111111 :
b00000000000000000000000000000100 ;
b00000000000000000000000000001000 <
b00000000000000000000000000000011 =
b00000000000000011 >
b00000000000000000000000001110000 ?
b00000000000000000000000001101011 @
b00111 A
b00111 B
b11111 C
b1111111111110011100000111 d
1e
#53
0e
#54
b01 #
0$
b1000 %
0'
b010 *
b11111110011100011100111011100011 -
1.
b100 /
b1100011 1
b100 2
b00000000000000000000000001110000 4
b00000000000000000000000001110100 5
b11111111111111111111111111111100 6
b00000000000000000000000000000001 8
b00000000000000000000000000000001 9
b00000000000000000000000000000011 :
b00000000000000000000000000000001 ;
b00000000000000000000000000000011 <
b00000000000000000000000000000001 =
b00000000000000001 >
b00000000000000000000000001101100 ?
b00000000000000000000000001101100 @
b11101 A
b00011 B
b00111 C
b00000000000000000000000000000011 K
b1111111001110001110011101 d
1e
#55
0e
#56
b00 #
1$
b0000 %
1'
b000 *
b11111111111100111000001110010011 -
0.
b000 /
b0010011 1
b000 2
b00000000000000000000000001101100 4
b00000000000000000000000001110000 5
b11111111111111111111111111111111 6
b00000000000000000000000000000010 8
b00000000000000000000000000000011 9
b11111111111111111111111111111111 :
b00000000000000000000000000000011 ;
b00000000000000000000000000001000 <
b00000000000000000000000000000010 =
b00000000000000010 >
b00000000000000000000000001110000 ?
b00000000000000000000000001101011 @
b00111 A
b00111 B
b11111 C
b1111111111110011100000111 d
1e
#57
0e
#58
b01 #
0$
b1000 %
0'
b010 *
b11111110011100011100111011100011 -
1.
b100 /
b1100011 1
b100 2
b00000000000000000000000001110000 4
b00000000000000000000000001110100 5
b11111111111111111111111111111100 6
b00000000000000000000000000000001 8
b00000000000000000000000000000001 9
b00000000000000000000000000000010 :
b00000000000000000000000000000001 ;
b00000000000000000000000000000010 <
b00000000000000000000000000000001 =
b00000000000000001 >
b00000000000000000000000001101100 ?
b00000000000000000000000001101100 @
b11101 A
b00011 B
b00111 C
b00000000000000000000000000000010 K
b1111111001110001110011101 d
1e
#59
0e
#60
b00 #
1$
b0000 %
1'
b000 *
b11111111111100111000001110010011 -
0.
b000 /
b0010011 1
b000 2
b00000000000000000000000001101100 4
b00000000000000000000000001110000 5
b11111111111111111111111111111111 6
b00000000000000000000000000000010 9
b11111111111111111111111111111111 :
b00000000000000000000000000000010 ;
b00000000000000000000000000001000 <
b00000000000000000000000001110000 ?
b00000000000000000000000001101011 @
b00111 A
b00111 B
b11111 C
b1111111111110011100000111 d
1e
#61
0e
#62
0$
b1000 %
0'
b010 *
1,
b11111110011100011100111011100011 -
1.
b100 /
b1100011 1
b100 2
b00000000000000000000000001110000 4
b00000000000000000000000001110100 5
b11111111111111111111111111111100 6
b00000000000000000000000000000000 8
b00000000000000000000000000000001 9
b00000000000000000000000000000001 :
b00000000000000000000000000000001 ;
b00000000000000000000000000000001 <
b00000000000000000000000000000000 =
b00000000000000000 >
b00000000000000000000000001110100 ?
b00000000000000000000000001101100 @
b11101 A
b00011 B
b00111 C
b00000000000000000000000000000001 K
b1111111001110001110011101 d
1e
#63
0e
#64
b10 #
1$
b0000 %
1'
b10 )
b000 *
0,
b00000000000000001000000001100111 -
0.
b000 /
b10 0
b1100111 1
b000 2
b0000000 3
b00000000000000000000000001110100 4
b00000000000000000000000001111000 5
b00000000000000000000000000000000 6
b00000000000000000000000001000000 8
b00000000000000000000000001000000 9
b00000000000000000000000000000000 :
b00000000000000000000000001000000 ;
b00000000000000000000000000000000 <
b00000000000000000000000001111000 =
b00000000001000000 >
b00000000000000000000000001000000 ?
b00000000000000000000000001110100 @
b00000 A
b00001 B
b00000 C
b0000000000000000100000000 d
1e
#65
0e
#66
b00 #
b0101 %
b00 )
1,
b00000000000100101001001010010011 -
b00 0
b0010011 1
b001 2
b00000000000000000000000001000000 4
b00000000000000000000000001000100 5
b00000000000000000000000000000001 6
b00000000000000000000000000000000 8
b00000000000000000000000000000000 9
b00000000000000000000000000000001 :
b00000000000000000000000000000000 ;
b00000000000000000000000001000000 <
b00000000000000000000000000000000 =
b00000000000000000 >
b00000000000000000000000001000100 ?
b00000000000000000000000001000001 @
b00101 A
b00101 B
b00001 C
b0000000000010010100100101 d
1e
#67
0e
#68
b0011 %
0,
b00000000000100101110001010010011 -
b110 2
b00000000000000000000000001000100 4
b00000000000000000000000001001000 5
b00000000000000000000000000000001 8
b00000000000000000000000000000001 =
b00000000000000001 >
b00000000000000000000000001001000 ?
b00000000000000000000000001000101 @
b0000000000010010111000101 d
1e
#69
0e
#70
b0000 %
b00000000000000101000010100010011 -
b000 2
b00000000000000000000000001001000 4
b00000000000000000000000001001100 5
b00000000000000000000000000000000 6
b00000000000000000000000000000001 9
b00000000000000000000000000000000 :
b00000000000000000000000000000001 ;
b00000000000000000000000000000000 <
b00000000000000000000000001001100 ?
b00000000000000000000000001001000 @
b01010 A
b00000 C
b00000000000000000000000000000001 I
b0000000000000010100001010 d
1e
#71
0e
#72
b01 #
0$
b0001 %
0'
b010 *
b11111110011000101001011011100011 -
1.
b001 /
b1100011 1
b001 2
b1111111 3
b00000000000000000000000001001100 4
b00000000000000000000000001010000 5
b11111111111111111111111111101100 6
b11111111111111111111111100000010 8
b00000000000000000000000011111111 :
b00000000000000000000000011111111 <
b11111111111111111111111100000010 =
b11111111100000010 >
b00000000000000000000000000111000 ?
b00000000000000000000000000111000 @
b01101 A
b00110 C
b00000000000000000000000000000001 N
b1111111001100010100101101 d
1e
b00000000000000000000000000000001 g
#73
0e
#74
b00 #
1$
b0000 %
1'
b000 *
b00000000100100000000001110010011 -
0.
b000 /
b0010011 1
b000 2
b0000000 3
b00000000000000000000000000111000 4
b00000000000000000000000000111100 5
b00000000000000000000000000001001 6
b00000000000000000000000000001001 8
b00000000000000000000000000000000 9
b00000000000000000000000000001001 :
b00000000000000000000000000000000 ;
b00000000000000000000000000000000 <
b00000000000000000000000000001001 =
b00000000000001001 >
b00000000000000000000000000111100 ?
b00000000000000000000000001000001 @
b00111 A
b00000 B
b01001 C
b0000000010010000000000111 d
1e
#75
0e
#76
b01 #
0'
b10 )
b011 *
1,
b00000011000000000000000011101111 -
b01 0
b1101111 1
b0000001 3
b00000000000000000000000000111100 4
b00000000000000000000000001000000 5
b00000000000000000000000000110000 6
b00000000000000000000000000000000 8
b00000000000000000000000000000000 :
b00000000000000000000000001000000 =
b00000000000000000 >
b00000000000000000000000001101100 ?
b00000000000000000000000001101100 @
b00001 A
b10000 C
b00000000000000000000000000001001 K
b0000001100000000000000001 d
1e
#77
0e
#78
b00 #
1'
b00 )
b000 *
0,
b11111111111100111000001110010011 -
b00 0
b0010011 1
b1111111 3
b00000000000000000000000001101100 4
b00000000000000000000000001110000 5
b11111111111111111111111111111111 6
b00000000000000000000000000001000 8
b00000000000000000000000000001001 9
b11111111111111111111111111111111 :
b00000000000000000000000000001001 ;
b00000000000000000000000000001000 <
b00000000000000000000000000001000 =
b00000000000001000 >
b00000000000000000000000001110000 ?
b00000000000000000000000001101011 @
b00111 A
b00111 B
b11111 C
b1111111111110011100000111 d
1e
#79
0e
#80
b01 #
0$
b1000 %
0'
b010 *
b11111110011100011100111011100011 -
1.
b100 /
b1100011 1
b100 2
b00000000000000000000000001110000 4
b00000000000000000000000001110100 5
b11111111111111111111111111111100 6
b00000000000000000000000000000001 8
b00000000000000000000000000000001 9
b00000000000000000000000000001000 :
b00000000000000000000000000000001 ;
b00000000000000000000000000000001 =
b00000000000000001 >
b00000000000000000000000001101100 ?
b00000000000000000000000001101100 @
b11101 A
b00011 B
b00111 C
b00000000000000000000000000001000 K
b1111111001110001110011101 d
1e
#81
0e
#82
b00 #
1$
b0000 %
1'
b000 *
b11111111111100111000001110010011 -
0.
b000 /
b0010011 1
b000 2
b00000000000000000000000001101100 4
b00000000000000000000000001110000 5
b11111111111111111111111111111111 6
b00000000000000000000000000000111 8
b00000000000000000000000000001000 9
b11111111111111111111111111111111 :
b00000000000000000000000000001000 ;
b00000000000000000000000000000111 =
b00000000000000111 >
b00000000000000000000000001110000 ?
b00000000000000000000000001101011 @
b00111 A
b00111 B
b11111 C
b1111111111110011100000111 d
1e
#83
0e
